{
    "input": [
        [5, 4, 5],
        [0],
        [0],
        [0],
        [0],
        [5, 1, 2, 3, 4, 5],
        [1, 2, 15],
        [1, 3, 5],
        [1, 5, 5],
        [5, 4, 10]
    ]
}