{
    "routeList": [
        {
            "route": [
                1,
                5
            ],
            "fishes": [
                1,
                2,
                3,
                4,
                5
            ],
            "totalTime": 5
        },
        {
            "route": [
                1,
                2,
                5
            ],
            "fishes": [
                1,
                2,
                4,
                3,
                5
            ],
            "totalTime": 15
        },
        {
            "route": [
                1,
                3,
                5
            ],
            "fishes": [
                1,
                3,
                5,
                2,
                4
            ],
            "totalTime": 15
        },
        {
            "route": [
                1,
                4,
                5
            ],
            "fishes": [
                1,
                2,
                4,
                3,
                5
            ],
            "totalTime": 25
        },
        {
            "route": [
                1,
                2,
                3,
                5
            ],
            "fishes": [
                1,
                2,
                4,
                3,
                5
            ],
            "totalTime": 25
        },
        {
            "route": [
                1,
                2,
                4,
                5
            ],
            "fishes": [
                1,
                2,
                4,
                3,
                5
            ],
            "totalTime": 35
        },
        {
            "route": [
                1,
                3,
                2,
                5
            ],
            "fishes": [
                1,
                3,
                5,
                2,
                4
            ],
            "totalTime": 25
        },
        {
            "route": [
                1,
                3,
                4,
                5
            ],
            "fishes": [
                1,
                3,
                5,
                2,
                4
            ],
            "totalTime": 35
        },
        {
            "route": [
                1,
                4,
                2,
                5
            ],
            "fishes": [
                1,
                2,
                4,
                3,
                5
            ],
            "totalTime": 45
        },
        {
            "route": [
                1,
                4,
                3,
                5
            ],
            "fishes": [
                1,
                2,
                4,
                3,
                5
            ],
            "totalTime": 45
        },
        {
            "route": [
                1,
                2,
                3,
                4,
                5
            ],
            "fishes": [
                1,
                2,
                4,
                3,
                5
            ],
            "totalTime": 45
        },
        {
            "route": [
                1,
                2,
                4,
                3,
                5
            ],
            "fishes": [
                1,
                2,
                4,
                3,
                5
            ],
            "totalTime": 55
        },
        {
            "route": [
                1,
                3,
                2,
                4,
                5
            ],
            "fishes": [
                1,
                3,
                5,
                2,
                4
            ],
            "totalTime": 45
        },
        {
            "route": [
                1,
                3,
                4,
                2,
                5
            ],
            "fishes": [
                1,
                3,
                5,
                2,
                4
            ],
            "totalTime": 55
        },
        {
            "route": [
                1,
                4,
                2,
                3,
                5
            ],
            "fishes": [
                1,
                2,
                4,
                3,
                5
            ],
            "totalTime": 55
        },
        {
            "route": [
                1,
                4,
                3,
                2,
                5
            ],
            "fishes": [
                1,
                2,
                4,
                3,
                5
            ],
            "totalTime": 55
        }
    ],
    "totalFishes": 5,
    "maxTime": 100
}